20

10
6
5
8
2
-2
-2
10
3
-1
-4
-2
-1
-1

7
10
2
10
1
-4
-4
-2
-1
9
3
4
-1

5
1
3
8
1
6
6
-6
-3

10
8
7
9
-4
-2

2
4
5
-3
10
8
8
8
10
-1
-5
-5

6
4
7
1
10
10
1
5

10
4
9
3

8
9
8
3
-2
7
2
-4
-3
-1
-2
-1

10
5
3
3
-4
1
9
9
-6
-5
-4
-2

3
9
5
2
8
-3
-4
-1
-1

3
10
5
7
7
-2
4
-1
-4
-2
-1

4
7
7
7
6
-4

4
1
8
-2
-2
9

8
7
6
9
-4
-2
-2
5
2
8
10
7
-4
-2
-4

8
-1
3
10
2
-1
-2
-1

3
3
9
10
1
-2
-3
-1

3
7
10
-2
-1
-1

1
10
9
2
-2
-1
8
10
-4
-3

8
1
-2
3
10
2
2
3
-1
-3
-2
-2
-1

9
6
6
6
7
-4
-3
7
4
4
6
-5
-2
-3
-3
-2
