28

8
10
9
-1
-2
6
-2

6
1
-2
9
5
10
4
-1
-2
-1
-2
-1

7
-1
10
10
2
8
-4
-1

10
4
7
-2
-1
-1
4
8
-2
-1

9
4
10
10
-2
-3
-1
8
3
6
7
-2
-2

1
1
10
10
-4
-1
-2
-1
8
1
9
8
-3

3
10
8
6
-3
-2
-2
5
6
5
10
-3

10
6
-2

10
9
5
-2
-2
1
5
-2
-2

1
6
2
9
5
3
9
-7
-1
-2
-1

4
6
2
6
3
7
-5
-5
-3
-3

6
9
1
2
7
-3
-3
-1
-1
3
1
-3

3
2
8

2
4
10
7
2
-5
-4
-2
9
6
8
5

10
9
1
10
3
2

1
-1
2
1

7
1
7
4
-1
-1
4
-1
-2
-1

3
10
4
10
3
-4
-1
-2
-1
-1
9
2

2
2
3
10
1
-5
-1
7
-4
-3
-2

10
1
6
3

4
5
5
10
5
5
-5
-2
-3

9
10
-1
-1
6
10
10
8
6
-5
-3
-2

3
10
4
2
7
-1
-1
-3
-1
3
4
-3
-2

3
-1
8
2
10
8
10
-2
-1
-1

5
-1
4
9
-2
-1

4
2
2
5
5
9
-6
-1
-1
-2

5
7
10
3
1
10
-2
-5
-2

2
4
-1
8
3
-1
-2
