-48 936
992
80 -8 888
-16 -32 40 -40 -48 776
-56 -40 880
-64 96 -56 -64 680
992
-80 -72 -64 752
208 -72 -32 656
184 -80 712
992
-64 -40 872
48 -64 -32 -16 800
992
-48 -32 88 -8 784
-48 80 -32 32 -80 680
992
120 -8 -64 776
-24 -8 -24 -64 -40 -72 712
992
-16 -48 -8 -8 -16 856
40 -8 928
-80 -8 888
8 -16 -72 -24 -24 808
992
