80 -24 24 -48 784
992
-32 24 -32 -72 800
-24 960
992
144 -40 792
160 -80 736
-16 -48 -8 896
200 -16 760
992
-16 -72 -48 832
992
992
72 -56 -48 -16 -80 680
992
-72 -16 96 -80 696
992
-56 928
72 -8 896
-72 -56 -24 -24 784
-56 928
992
-56 -56 -32 -32 784
992
-24 16 -64 -40 816
