-40 -72 -56 32 -88 -40 -64 544
-16 968
-104 48 -16 -40 -104 72 -120 -96 -112 208
-40 -56 -32 -8 -40 776
-16 -40 -72 -24 72 -40 48 -16 -40 -72 472
-40 -40 8 -8 8 -40 -24 -16 -16 16 -40 648
24 -8 -40 -24 864
72 -40 -24 832
8 -8 -80 -24 8 -32 -48 8 -24 -16 -16 632
-8 24 -48 888
-64 920
992
-8 -8 -8 -48 8 -8 856
96 -16 8 -8 -48 -24 -40 -24 664
-8 24 -56 -64 808
24 -8 -56 -8 -32 -16 -72 -32 160 -88 -88 320
-8 -8 -8 -24 24 -56 -32 776
-8 -48 920
-32 8 -8 -8 -64 -8 816
992
