30

4
1
2
3

1
7
1
8
5
6
-3
-4

2
3
6
3
7
7
3
-4
8

4
4
5
4
-4
2
6

2
4
7
8
-2
-3
1
6
1

6
8
1
2
3

3
6
7
2
3
-1
-4
3
8
8
8
3

1
4
1
5
-3
2
6
7
1
-5

4
2

8
4
6
-1
6
5
4
4
8
3

7
2
4
7
2
8
1
-7
4
8

8

4
8

1
7
7
4
7
8
-3
8
-4
-5

8
-1
5
2

3

2
-1
2
8
2
-2
3

8

5
1

1
7
7
-3
-2
4

8
1
5
-2
1
4
-1

4
8
6
8

8
3
7
2

8
1

6
2
7

5
1
4
2

1
8
4
7
2
-5
5
6
4
7
8

1
-1
6
-1
8
4
5

3
4
3
3
6
5
2

6
7
-2
6
