-40 -16 8 -24 -48 -40 768
-8 -64 -80 816
-40 -72 -72 72 -72 624
-56 104 -56 752
80 -8 -40 -80 752
-24 -16 -16 -40 -24 832
-64 920
96 -8 64 -24 48 -24 680
-56 -48 -72 792
-8 -64 72 -8 808
152 -80 744
992
992
992
992
-48 -56 -48 -40 -56 -72 -48 -48 512
88 -56 -8 -8 800
8 -72 -16 872
144 -8 40 -64 16 -32 640
-64 -32 880
-24 32 -72 -80 -72 -80 -40 -48 480
-80 40 -24 824
-40 -80 856
-16 -32 -24 896
