-32 952
456 -80 440
-64 -40 64 -56 80 -64 576
-8 -56 -72 -32 -24 760
-72 912
-56 144 -80 688
992
992
56 -80 -64 768
-48 -56 56 -32 -32 -64 656
-80 48 -32 808
-72 -8 896
16 -40 -48 864
-64 -8 -56 840
-48 -8 104 -24 -16 -8 -8 720
992
-56 -8 24 -40 -8 -56 752
992
992
128 -8 32 -48 744
64 -80 64 -56 -64 56 -56 -48 440
-32 -32 56 -56 -72 704
24 -24 -32 -8 872
-16 968
992
-32 -56 -32 16 -48 -24 -32 696
