-56 48 -72 792
-24 -48 -32 -48 808
40 -32 -72 -64 752
24 -32 -64 -32 -64 -48 680
48 -40 -8 872
8 -48 -24 -64 -8 -64 728
-40 -8 -8 -72 -48 776
-32 16 -8 -80 -80 -24 704
-40 -80 -72 776
-16 48 -72 -32 -16 768
-8 40 -48 -72 -80 704
96 -56 -24 -72 712
24 -16 16 -24 -8 -32 824
-8 -80 888
-24 -48 -64 -8 816
48 -48 -56 -72 -8 -40 672
-32 952
72 -32 -40 -72 -48 -72 608
-24 -64 -48 -72 -64 -56 616
-32 8 -64 -40 816
40 -32 -8 -48 832
64 -8 904
56 -8 -72 -72 -64 680
-8 64 -64 -32 792
-40 -16 920
